Getting Started with Modeltime GluonTS • modeltime.gluonts
…
We’ll create the forecast region using future_frame(). We are forecasting 1 week (24x7 timestamps) into the future.

HORIZON <- 52

new_data <- data %>%
  group_by(id) %>%
  future_frame(.length_out = HORIZON) %>%
  ungroup()

new_data
#> # A tibble: 364 × 2
#>    id    date      
#>    <fct> <date>    
#>  1 1_1   2012-11-02
#>  2 1_1   2012-11-09
#>  3 1_1   2012-11-16
#>  4 1_1   2012-11-23
#>  5 1_1   2012-11-30
#>  6 1_1   2012-12-07
#>  7 1_1   2012-12-14
#>  8 1_1   2012-12-21
#>  9 1_1   2012-12-28
#> 10 1_1   2013-01-04
#> # … with 354 more rows
…
