Getting Started with Modeltime GluonTS • modeltime.gluonts
…
Other installation issues. Please file a GitHub issue here.

Time Series Data

We’ll use the m4_hourly dataset, which contains 4 hourly time series.

data <- m4_hourly %>%
  select(id, date, value) %>%
  group_by(id) %>%
  mutate(value = standardize_vec(value)) %>%
  ungroup()

data
#> # A tibble: 3,060 x 3
#>    id    date                  value
#>    <fct> <dttm>                <dbl>
#>  1 H10   2015-07-01 12:00:00  1.98  
#>  2 H10   2015-07-01 13:00:00  1.95  
#>  3 H10   2015-07-01 14:00:00  1.78  
#>  4 H10   2015-07-01 15:00:00  1.62  
#>  5 H10   2015-07-01 16:00:00  1.33  
#>  6 H10   2015-07-01 17:00:00  1.16  
#>  7 H10   2015-07-01 18:00:00  0.682 
#>  8 H10   2015-07-01 19:00:00  0.0876
#>  9 H10   2015-07-01 20:00:00 -0.252 
#> 10 H10   2015-07-01 21:00:00 -0.591 
#> # … with 3,050 more rows

We’ll create the forecast region using future_frame(). We are forecasting 1 week (24x7 timestamps) into the future.

HORIZON <- 24*7

new_data <- data %>%
  group_by(id) %>%
  future_frame(.length_out = HORIZON) %>%
  ungroup()

new_data
#> # A tibble: 672 x 2
#>    id    date               
#>    <fct> <dttm>             
#>  1 H10   2015-07-30 16:00:00
#>  2 H10   2015-07-30 17:00:00
#>  3 H10   2015-07-30 18:00:00
#>  4 H10   2015-07-30 19:00:00
#>  5 H10   2015-07-30 20:00:00
#>  6 H10   2015-07-30 21:00:00
#>  7 H10   2015-07-30 22:00:00
#>  8 H10   2015-07-30 23:00:00
#>  9 H10   2015-07-31 00:00:00
#> 10 H10   2015-07-31 01:00:00
#> # … with 662 more rows
…
